<?xml version="1.0" encoding="UTF-8"?>
<testng-results ignored="0" total="1" passed="1" failed="0" skipped="0">
  <reporter-output>
  </reporter-output>
  <suite started-at="2021-04-19T22:19:26 BDT" name="Suite" finished-at="2021-04-19T22:19:53 BDT" duration-ms="26534">
    <groups>
    </groups>
    <test started-at="2021-04-19T22:19:26 BDT" name="Test" finished-at="2021-04-19T22:19:53 BDT" duration-ms="26534">
      <class name="testCases.craiglist">
        <test-method signature="openCraiglist()[pri:0, instance:testCases.craiglist@4ae3c1cd]" started-at="2021-04-19T22:19:26 BDT" name="openCraiglist" finished-at="2021-04-19T22:19:53 BDT" duration-ms="26467" status="PASS">
          <reporter-output>
          </reporter-output>
        </test-method> <!-- openCraiglist -->
      </class> <!-- testCases.craiglist -->
    </test> <!-- Test -->
  </suite> <!-- Suite -->
</testng-results>
